module M1
  use  int.Int
  
  goal g: Int.( = ) 4 (Int.( + ) 2 2)
end

module M2
  use  int.Int
  
  let f (x : int)
    requires { x = 6 }
    ensures { result = 42 } =
    Int.( * ) x 7
end

module M3
  use  int.Int
  use  ref.Ref
  
  let f (_ : ())
    ensures { Int.( >= ) result 0 } =
    let x = Ref.ref 42 in Ref.( ! ) x
end

module M4
  use  int.Int
  use  array.Array
  
  let f (a : Array.array int)
    requires { Int.( >= ) (Array.length a) 1 }
    returns { _ -> (Array.( [] ) a 0) = 42 } =
    Array.( []<- ) a 0 42
end
Tasks are:
Task 1: theory Task
          type int
          
          type real
          
          type string
          
          predicate (=) 'a 'a
          
          (* use why3.BuiltIn.BuiltIn *)
          
          type bool =
            | True
            | False
          
          (* use why3.Bool.Bool *)
          
          type tuple0 =
            | Tuple0
          
          (* use why3.Tuple0.Tuple01 *)
          
          type unit = unit
          
          (* use why3.Unit.Unit *)
          
          constant zero : int = 0
          
          constant one : int = 1
          
          function (-_) int : int
          
          function (+) int int : int
          
          function ( * ) int int : int
          
          predicate (<) int int
          
          function (-) (x:int) (y:int) : int = x + (- y)
          
          predicate (>) (x:int) (y:int) = y < x
          
          predicate (<=) (x:int) (y:int) = x < y \/ x = y
          
          predicate (>=) (x:int) (y:int) = y <= x
          
          Assoc : forall x:int, y:int, z:int. ((x + y) + z) = (x + (y + z))
          
          (* clone algebra.Assoc with type t = int, function op = (+),
            prop Assoc1 = Assoc,  *)
          
          Unit_def_l : forall x:int. (zero + x) = x
          
          Unit_def_r : forall x:int. (x + zero) = x
          
          (* clone algebra.Monoid with type t1 = int, constant unit = zero,
            function op1 = (+), prop Unit_def_r1 = Unit_def_r,
            prop Unit_def_l1 = Unit_def_l, prop Assoc2 = Assoc,  *)
          
          Inv_def_l : forall x:int. ((- x) + x) = zero
          
          Inv_def_r : forall x:int. (x + (- x)) = zero
          
          (* clone algebra.Group with type t2 = int, function inv = (-_),
            constant unit1 = zero, function op2 = (+),
            prop Inv_def_r1 = Inv_def_r, prop Inv_def_l1 = Inv_def_l,
            prop Unit_def_r2 = Unit_def_r, prop Unit_def_l2 = Unit_def_l,
            prop Assoc3 = Assoc,  *)
          
          Comm : forall x:int, y:int. (x + y) = (y + x)
          
          (* clone algebra.Comm with type t3 = int, function op3 = (+),
            prop Comm1 = Comm,  *)
          
          (* meta AC function (+) *)
          
          (* clone algebra.CommutativeGroup with type t4 = int,
            function inv1 = (-_), constant unit2 = zero, function op4 = (+),
            prop Comm2 = Comm, prop Inv_def_r2 = Inv_def_r,
            prop Inv_def_l2 = Inv_def_l, prop Unit_def_r3 = Unit_def_r,
            prop Unit_def_l3 = Unit_def_l, prop Assoc4 = Assoc,  *)
          
          Assoc5 : forall x:int, y:int, z:int. ((x * y) * z) = (x * (y * z))
          
          (* clone algebra.Assoc with type t = int, function op = ( * ),
            prop Assoc1 = Assoc5,  *)
          
          Mul_distr_l :
            forall x:int, y:int, z:int. (x * (y + z)) = ((x * y) + (x * z))
          
          Mul_distr_r :
            forall x:int, y:int, z:int. ((y + z) * x) = ((y * x) + (z * x))
          
          (* clone algebra.Ring with type t5 = int, function ( *') = ( * ),
            function (-'_) = (-_), function (+') = (+),
            constant zero1 = zero, prop Mul_distr_r1 = Mul_distr_r,
            prop Mul_distr_l1 = Mul_distr_l, prop Assoc6 = Assoc5,
            prop Comm3 = Comm, prop Inv_def_r3 = Inv_def_r,
            prop Inv_def_l3 = Inv_def_l, prop Unit_def_r4 = Unit_def_r,
            prop Unit_def_l4 = Unit_def_l, prop Assoc7 = Assoc,  *)
          
          Comm4 : forall x:int, y:int. (x * y) = (y * x)
          
          (* clone algebra.Comm with type t3 = int, function op3 = ( * ),
            prop Comm1 = Comm4,  *)
          
          (* meta AC function ( * ) *)
          
          (* clone algebra.CommutativeRing with type t6 = int,
            function ( *'') = ( * ), function (-''_) = (-_),
            function (+'') = (+), constant zero2 = zero, prop Comm5 = Comm4,
            prop Mul_distr_r2 = Mul_distr_r, prop Mul_distr_l2 = Mul_distr_l,
            prop Assoc8 = Assoc5, prop Comm6 = Comm,
            prop Inv_def_r4 = Inv_def_r, prop Inv_def_l4 = Inv_def_l,
            prop Unit_def_r5 = Unit_def_r, prop Unit_def_l5 = Unit_def_l,
            prop Assoc9 = Assoc,  *)
          
          Unitary : forall x:int. (one * x) = x
          
          NonTrivialRing : not zero = one
          
          (* clone algebra.UnitaryCommutativeRing with type t7 = int,
            constant one1 = one, function ( *''') = ( * ),
            function (-'''_) = (-_), function (+''') = (+),
            constant zero3 = zero, prop NonTrivialRing1 = NonTrivialRing,
            prop Unitary1 = Unitary, prop Comm7 = Comm4,
            prop Mul_distr_r3 = Mul_distr_r, prop Mul_distr_l3 = Mul_distr_l,
            prop Assoc10 = Assoc5, prop Comm8 = Comm,
            prop Inv_def_r5 = Inv_def_r, prop Inv_def_l5 = Inv_def_l,
            prop Unit_def_r6 = Unit_def_r, prop Unit_def_l6 = Unit_def_l,
            prop Assoc11 = Assoc,  *)
          
          (* clone relations.EndoRelation with type t8 = int,
            predicate rel = (<=),  *)
          
          Refl : forall x:int. x <= x
          
          (* clone relations.Reflexive with type t9 = int,
            predicate rel1 = (<=), prop Refl1 = Refl,  *)
          
          (* clone relations.EndoRelation with type t8 = int,
            predicate rel = (<=),  *)
          
          Trans : forall x:int, y:int, z:int. x <= y -> y <= z -> x <= z
          
          (* clone relations.Transitive with type t10 = int,
            predicate rel2 = (<=), prop Trans1 = Trans,  *)
          
          (* clone relations.PreOrder with type t11 = int,
            predicate rel3 = (<=), prop Trans2 = Trans, prop Refl2 = Refl,
             *)
          
          (* clone relations.EndoRelation with type t8 = int,
            predicate rel = (<=),  *)
          
          Antisymm : forall x:int, y:int. x <= y -> y <= x -> x = y
          
          (* clone relations.Antisymmetric with type t12 = int,
            predicate rel4 = (<=), prop Antisymm1 = Antisymm,  *)
          
          (* clone relations.PartialOrder with type t13 = int,
            predicate rel5 = (<=), prop Antisymm2 = Antisymm,
            prop Trans3 = Trans, prop Refl3 = Refl,  *)
          
          (* clone relations.EndoRelation with type t8 = int,
            predicate rel = (<=),  *)
          
          Total : forall x:int, y:int. x <= y \/ y <= x
          
          (* clone relations.Total with type t14 = int,
            predicate rel6 = (<=), prop Total1 = Total,  *)
          
          (* clone relations.TotalOrder with type t15 = int,
            predicate rel7 = (<=), prop Total2 = Total,
            prop Antisymm3 = Antisymm, prop Trans4 = Trans,
            prop Refl4 = Refl,  *)
          
          ZeroLessOne : zero <= one
          
          CompatOrderAdd :
            forall x:int, y:int, z:int. x <= y -> (x + z) <= (y + z)
          
          CompatOrderMult :
            forall x:int, y:int, z:int.
             x <= y -> zero <= z -> (x * z) <= (y * z)
          
          (* clone algebra.OrderedUnitaryCommutativeRing with type t16 = int,
            predicate (<=') = (<=), constant one2 = one,
            function ( *'''') = ( * ), function (-''''_) = (-_),
            function (+'''') = (+), constant zero4 = zero,
            prop CompatOrderMult1 = CompatOrderMult,
            prop CompatOrderAdd1 = CompatOrderAdd,
            prop ZeroLessOne1 = ZeroLessOne, prop Total3 = Total,
            prop Antisymm4 = Antisymm, prop Trans5 = Trans,
            prop Refl5 = Refl, prop NonTrivialRing2 = NonTrivialRing,
            prop Unitary2 = Unitary, prop Comm9 = Comm4,
            prop Mul_distr_r4 = Mul_distr_r, prop Mul_distr_l4 = Mul_distr_l,
            prop Assoc12 = Assoc5, prop Comm10 = Comm,
            prop Inv_def_r6 = Inv_def_r, prop Inv_def_l6 = Inv_def_l,
            prop Unit_def_r7 = Unit_def_r, prop Unit_def_l7 = Unit_def_l,
            prop Assoc13 = Assoc,  *)
          
          (* use int.Int *)
          
          goal g : 4 = (2 + 2)
end

Task 2: theory Task
          type int
          
          type real
          
          type string
          
          predicate (=) 'a 'a
          
          (* use why3.BuiltIn.BuiltIn *)
          
          type bool =
            | True
            | False
          
          (* use why3.Bool.Bool *)
          
          type tuple0 =
            | Tuple0
          
          (* use why3.Tuple0.Tuple01 *)
          
          type unit = unit
          
          (* use why3.Unit.Unit *)
          
          constant zero : int = 0
          
          constant one : int = 1
          
          function (-_) int : int
          
          function (+) int int : int
          
          function ( * ) int int : int
          
          predicate (<) int int
          
          function (-) (x:int) (y:int) : int = x + (- y)
          
          predicate (>) (x:int) (y:int) = y < x
          
          predicate (<=) (x:int) (y:int) = x < y \/ x = y
          
          predicate (>=) (x:int) (y:int) = y <= x
          
          Assoc : forall x:int, y:int, z:int. ((x + y) + z) = (x + (y + z))
          
          (* clone algebra.Assoc with type t = int, function op = (+),
            prop Assoc1 = Assoc,  *)
          
          Unit_def_l : forall x:int. (zero + x) = x
          
          Unit_def_r : forall x:int. (x + zero) = x
          
          (* clone algebra.Monoid with type t1 = int, constant unit = zero,
            function op1 = (+), prop Unit_def_r1 = Unit_def_r,
            prop Unit_def_l1 = Unit_def_l, prop Assoc2 = Assoc,  *)
          
          Inv_def_l : forall x:int. ((- x) + x) = zero
          
          Inv_def_r : forall x:int. (x + (- x)) = zero
          
          (* clone algebra.Group with type t2 = int, function inv = (-_),
            constant unit1 = zero, function op2 = (+),
            prop Inv_def_r1 = Inv_def_r, prop Inv_def_l1 = Inv_def_l,
            prop Unit_def_r2 = Unit_def_r, prop Unit_def_l2 = Unit_def_l,
            prop Assoc3 = Assoc,  *)
          
          Comm : forall x:int, y:int. (x + y) = (y + x)
          
          (* clone algebra.Comm with type t3 = int, function op3 = (+),
            prop Comm1 = Comm,  *)
          
          (* meta AC function (+) *)
          
          (* clone algebra.CommutativeGroup with type t4 = int,
            function inv1 = (-_), constant unit2 = zero, function op4 = (+),
            prop Comm2 = Comm, prop Inv_def_r2 = Inv_def_r,
            prop Inv_def_l2 = Inv_def_l, prop Unit_def_r3 = Unit_def_r,
            prop Unit_def_l3 = Unit_def_l, prop Assoc4 = Assoc,  *)
          
          Assoc5 : forall x:int, y:int, z:int. ((x * y) * z) = (x * (y * z))
          
          (* clone algebra.Assoc with type t = int, function op = ( * ),
            prop Assoc1 = Assoc5,  *)
          
          Mul_distr_l :
            forall x:int, y:int, z:int. (x * (y + z)) = ((x * y) + (x * z))
          
          Mul_distr_r :
            forall x:int, y:int, z:int. ((y + z) * x) = ((y * x) + (z * x))
          
          (* clone algebra.Ring with type t5 = int, function ( *') = ( * ),
            function (-'_) = (-_), function (+') = (+),
            constant zero1 = zero, prop Mul_distr_r1 = Mul_distr_r,
            prop Mul_distr_l1 = Mul_distr_l, prop Assoc6 = Assoc5,
            prop Comm3 = Comm, prop Inv_def_r3 = Inv_def_r,
            prop Inv_def_l3 = Inv_def_l, prop Unit_def_r4 = Unit_def_r,
            prop Unit_def_l4 = Unit_def_l, prop Assoc7 = Assoc,  *)
          
          Comm4 : forall x:int, y:int. (x * y) = (y * x)
          
          (* clone algebra.Comm with type t3 = int, function op3 = ( * ),
            prop Comm1 = Comm4,  *)
          
          (* meta AC function ( * ) *)
          
          (* clone algebra.CommutativeRing with type t6 = int,
            function ( *'') = ( * ), function (-''_) = (-_),
            function (+'') = (+), constant zero2 = zero, prop Comm5 = Comm4,
            prop Mul_distr_r2 = Mul_distr_r, prop Mul_distr_l2 = Mul_distr_l,
            prop Assoc8 = Assoc5, prop Comm6 = Comm,
            prop Inv_def_r4 = Inv_def_r, prop Inv_def_l4 = Inv_def_l,
            prop Unit_def_r5 = Unit_def_r, prop Unit_def_l5 = Unit_def_l,
            prop Assoc9 = Assoc,  *)
          
          Unitary : forall x:int. (one * x) = x
          
          NonTrivialRing : not zero = one
          
          (* clone algebra.UnitaryCommutativeRing with type t7 = int,
            constant one1 = one, function ( *''') = ( * ),
            function (-'''_) = (-_), function (+''') = (+),
            constant zero3 = zero, prop NonTrivialRing1 = NonTrivialRing,
            prop Unitary1 = Unitary, prop Comm7 = Comm4,
            prop Mul_distr_r3 = Mul_distr_r, prop Mul_distr_l3 = Mul_distr_l,
            prop Assoc10 = Assoc5, prop Comm8 = Comm,
            prop Inv_def_r5 = Inv_def_r, prop Inv_def_l5 = Inv_def_l,
            prop Unit_def_r6 = Unit_def_r, prop Unit_def_l6 = Unit_def_l,
            prop Assoc11 = Assoc,  *)
          
          (* clone relations.EndoRelation with type t8 = int,
            predicate rel = (<=),  *)
          
          Refl : forall x:int. x <= x
          
          (* clone relations.Reflexive with type t9 = int,
            predicate rel1 = (<=), prop Refl1 = Refl,  *)
          
          (* clone relations.EndoRelation with type t8 = int,
            predicate rel = (<=),  *)
          
          Trans : forall x:int, y:int, z:int. x <= y -> y <= z -> x <= z
          
          (* clone relations.Transitive with type t10 = int,
            predicate rel2 = (<=), prop Trans1 = Trans,  *)
          
          (* clone relations.PreOrder with type t11 = int,
            predicate rel3 = (<=), prop Trans2 = Trans, prop Refl2 = Refl,
             *)
          
          (* clone relations.EndoRelation with type t8 = int,
            predicate rel = (<=),  *)
          
          Antisymm : forall x:int, y:int. x <= y -> y <= x -> x = y
          
          (* clone relations.Antisymmetric with type t12 = int,
            predicate rel4 = (<=), prop Antisymm1 = Antisymm,  *)
          
          (* clone relations.PartialOrder with type t13 = int,
            predicate rel5 = (<=), prop Antisymm2 = Antisymm,
            prop Trans3 = Trans, prop Refl3 = Refl,  *)
          
          (* clone relations.EndoRelation with type t8 = int,
            predicate rel = (<=),  *)
          
          Total : forall x:int, y:int. x <= y \/ y <= x
          
          (* clone relations.Total with type t14 = int,
            predicate rel6 = (<=), prop Total1 = Total,  *)
          
          (* clone relations.TotalOrder with type t15 = int,
            predicate rel7 = (<=), prop Total2 = Total,
            prop Antisymm3 = Antisymm, prop Trans4 = Trans,
            prop Refl4 = Refl,  *)
          
          ZeroLessOne : zero <= one
          
          CompatOrderAdd :
            forall x:int, y:int, z:int. x <= y -> (x + z) <= (y + z)
          
          CompatOrderMult :
            forall x:int, y:int, z:int.
             x <= y -> zero <= z -> (x * z) <= (y * z)
          
          (* clone algebra.OrderedUnitaryCommutativeRing with type t16 = int,
            predicate (<=') = (<=), constant one2 = one,
            function ( *'''') = ( * ), function (-''''_) = (-_),
            function (+'''') = (+), constant zero4 = zero,
            prop CompatOrderMult1 = CompatOrderMult,
            prop CompatOrderAdd1 = CompatOrderAdd,
            prop ZeroLessOne1 = ZeroLessOne, prop Total3 = Total,
            prop Antisymm4 = Antisymm, prop Trans5 = Trans,
            prop Refl5 = Refl, prop NonTrivialRing2 = NonTrivialRing,
            prop Unitary2 = Unitary, prop Comm9 = Comm4,
            prop Mul_distr_r4 = Mul_distr_r, prop Mul_distr_l4 = Mul_distr_l,
            prop Assoc12 = Assoc5, prop Comm10 = Comm,
            prop Inv_def_r6 = Inv_def_r, prop Inv_def_l6 = Inv_def_l,
            prop Unit_def_r7 = Unit_def_r, prop Unit_def_l7 = Unit_def_l,
            prop Assoc13 = Assoc,  *)
          
          (* use int.Int *)
          
          goal f'vc : forall x:int. x = 6 -> (x * 7) = 42
end

Task 3: theory Task
          type int
          
          type real
          
          type string
          
          predicate (=) 'a 'a
          
          (* use why3.BuiltIn.BuiltIn *)
          
          type bool =
            | True
            | False
          
          (* use why3.Bool.Bool *)
          
          type tuple0 =
            | Tuple0
          
          (* use why3.Tuple0.Tuple01 *)
          
          type unit = unit
          
          (* use why3.Unit.Unit *)
          
          constant zero : int = 0
          
          constant one : int = 1
          
          function (-_) int : int
          
          function (+) int int : int
          
          function ( * ) int int : int
          
          predicate (<) int int
          
          function (-) (x:int) (y:int) : int = x + (- y)
          
          predicate (>) (x:int) (y:int) = y < x
          
          predicate (<=) (x:int) (y:int) = x < y \/ x = y
          
          predicate (>=) (x:int) (y:int) = y <= x
          
          Assoc : forall x:int, y:int, z:int. ((x + y) + z) = (x + (y + z))
          
          (* clone algebra.Assoc with type t = int, function op = (+),
            prop Assoc1 = Assoc,  *)
          
          Unit_def_l : forall x:int. (zero + x) = x
          
          Unit_def_r : forall x:int. (x + zero) = x
          
          (* clone algebra.Monoid with type t1 = int, constant unit = zero,
            function op1 = (+), prop Unit_def_r1 = Unit_def_r,
            prop Unit_def_l1 = Unit_def_l, prop Assoc2 = Assoc,  *)
          
          Inv_def_l : forall x:int. ((- x) + x) = zero
          
          Inv_def_r : forall x:int. (x + (- x)) = zero
          
          (* clone algebra.Group with type t2 = int, function inv = (-_),
            constant unit1 = zero, function op2 = (+),
            prop Inv_def_r1 = Inv_def_r, prop Inv_def_l1 = Inv_def_l,
            prop Unit_def_r2 = Unit_def_r, prop Unit_def_l2 = Unit_def_l,
            prop Assoc3 = Assoc,  *)
          
          Comm : forall x:int, y:int. (x + y) = (y + x)
          
          (* clone algebra.Comm with type t3 = int, function op3 = (+),
            prop Comm1 = Comm,  *)
          
          (* meta AC function (+) *)
          
          (* clone algebra.CommutativeGroup with type t4 = int,
            function inv1 = (-_), constant unit2 = zero, function op4 = (+),
            prop Comm2 = Comm, prop Inv_def_r2 = Inv_def_r,
            prop Inv_def_l2 = Inv_def_l, prop Unit_def_r3 = Unit_def_r,
            prop Unit_def_l3 = Unit_def_l, prop Assoc4 = Assoc,  *)
          
          Assoc5 : forall x:int, y:int, z:int. ((x * y) * z) = (x * (y * z))
          
          (* clone algebra.Assoc with type t = int, function op = ( * ),
            prop Assoc1 = Assoc5,  *)
          
          Mul_distr_l :
            forall x:int, y:int, z:int. (x * (y + z)) = ((x * y) + (x * z))
          
          Mul_distr_r :
            forall x:int, y:int, z:int. ((y + z) * x) = ((y * x) + (z * x))
          
          (* clone algebra.Ring with type t5 = int, function ( *') = ( * ),
            function (-'_) = (-_), function (+') = (+),
            constant zero1 = zero, prop Mul_distr_r1 = Mul_distr_r,
            prop Mul_distr_l1 = Mul_distr_l, prop Assoc6 = Assoc5,
            prop Comm3 = Comm, prop Inv_def_r3 = Inv_def_r,
            prop Inv_def_l3 = Inv_def_l, prop Unit_def_r4 = Unit_def_r,
            prop Unit_def_l4 = Unit_def_l, prop Assoc7 = Assoc,  *)
          
          Comm4 : forall x:int, y:int. (x * y) = (y * x)
          
          (* clone algebra.Comm with type t3 = int, function op3 = ( * ),
            prop Comm1 = Comm4,  *)
          
          (* meta AC function ( * ) *)
          
          (* clone algebra.CommutativeRing with type t6 = int,
            function ( *'') = ( * ), function (-''_) = (-_),
            function (+'') = (+), constant zero2 = zero, prop Comm5 = Comm4,
            prop Mul_distr_r2 = Mul_distr_r, prop Mul_distr_l2 = Mul_distr_l,
            prop Assoc8 = Assoc5, prop Comm6 = Comm,
            prop Inv_def_r4 = Inv_def_r, prop Inv_def_l4 = Inv_def_l,
            prop Unit_def_r5 = Unit_def_r, prop Unit_def_l5 = Unit_def_l,
            prop Assoc9 = Assoc,  *)
          
          Unitary : forall x:int. (one * x) = x
          
          NonTrivialRing : not zero = one
          
          (* clone algebra.UnitaryCommutativeRing with type t7 = int,
            constant one1 = one, function ( *''') = ( * ),
            function (-'''_) = (-_), function (+''') = (+),
            constant zero3 = zero, prop NonTrivialRing1 = NonTrivialRing,
            prop Unitary1 = Unitary, prop Comm7 = Comm4,
            prop Mul_distr_r3 = Mul_distr_r, prop Mul_distr_l3 = Mul_distr_l,
            prop Assoc10 = Assoc5, prop Comm8 = Comm,
            prop Inv_def_r5 = Inv_def_r, prop Inv_def_l5 = Inv_def_l,
            prop Unit_def_r6 = Unit_def_r, prop Unit_def_l6 = Unit_def_l,
            prop Assoc11 = Assoc,  *)
          
          (* clone relations.EndoRelation with type t8 = int,
            predicate rel = (<=),  *)
          
          Refl : forall x:int. x <= x
          
          (* clone relations.Reflexive with type t9 = int,
            predicate rel1 = (<=), prop Refl1 = Refl,  *)
          
          (* clone relations.EndoRelation with type t8 = int,
            predicate rel = (<=),  *)
          
          Trans : forall x:int, y:int, z:int. x <= y -> y <= z -> x <= z
          
          (* clone relations.Transitive with type t10 = int,
            predicate rel2 = (<=), prop Trans1 = Trans,  *)
          
          (* clone relations.PreOrder with type t11 = int,
            predicate rel3 = (<=), prop Trans2 = Trans, prop Refl2 = Refl,
             *)
          
          (* clone relations.EndoRelation with type t8 = int,
            predicate rel = (<=),  *)
          
          Antisymm : forall x:int, y:int. x <= y -> y <= x -> x = y
          
          (* clone relations.Antisymmetric with type t12 = int,
            predicate rel4 = (<=), prop Antisymm1 = Antisymm,  *)
          
          (* clone relations.PartialOrder with type t13 = int,
            predicate rel5 = (<=), prop Antisymm2 = Antisymm,
            prop Trans3 = Trans, prop Refl3 = Refl,  *)
          
          (* clone relations.EndoRelation with type t8 = int,
            predicate rel = (<=),  *)
          
          Total : forall x:int, y:int. x <= y \/ y <= x
          
          (* clone relations.Total with type t14 = int,
            predicate rel6 = (<=), prop Total1 = Total,  *)
          
          (* clone relations.TotalOrder with type t15 = int,
            predicate rel7 = (<=), prop Total2 = Total,
            prop Antisymm3 = Antisymm, prop Trans4 = Trans,
            prop Refl4 = Refl,  *)
          
          ZeroLessOne : zero <= one
          
          CompatOrderAdd :
            forall x:int, y:int, z:int. x <= y -> (x + z) <= (y + z)
          
          CompatOrderMult :
            forall x:int, y:int, z:int.
             x <= y -> zero <= z -> (x * z) <= (y * z)
          
          (* clone algebra.OrderedUnitaryCommutativeRing with type t16 = int,
            predicate (<=') = (<=), constant one2 = one,
            function ( *'''') = ( * ), function (-''''_) = (-_),
            function (+'''') = (+), constant zero4 = zero,
            prop CompatOrderMult1 = CompatOrderMult,
            prop CompatOrderAdd1 = CompatOrderAdd,
            prop ZeroLessOne1 = ZeroLessOne, prop Total3 = Total,
            prop Antisymm4 = Antisymm, prop Trans5 = Trans,
            prop Refl5 = Refl, prop NonTrivialRing2 = NonTrivialRing,
            prop Unitary2 = Unitary, prop Comm9 = Comm4,
            prop Mul_distr_r4 = Mul_distr_r, prop Mul_distr_l4 = Mul_distr_l,
            prop Assoc12 = Assoc5, prop Comm10 = Comm,
            prop Inv_def_r6 = Inv_def_r, prop Inv_def_l6 = Inv_def_l,
            prop Unit_def_r7 = Unit_def_r, prop Unit_def_l7 = Unit_def_l,
            prop Assoc13 = Assoc,  *)
          
          (* use int.Int *)
          
          type ref 'a =
            | Ref'mk (contents:'a)
          
          (* use why3.Ref.Ref *)
          
          function (!) (r:ref 'a) : 'a = contents r
          
          (* use ref.Ref1 *)
          
          goal f'vc : 42 >= 0
end

Task 4: theory Task
          type int
          
          type real
          
          type string
          
          predicate (=) 'a 'a
          
          (* use why3.BuiltIn.BuiltIn *)
          
          type bool =
            | True
            | False
          
          (* use why3.Bool.Bool *)
          
          type tuple0 =
            | Tuple0
          
          (* use why3.Tuple0.Tuple01 *)
          
          type unit = unit
          
          (* use why3.Unit.Unit *)
          
          constant zero : int = 0
          
          constant one : int = 1
          
          function (-_) int : int
          
          function (+) int int : int
          
          function ( * ) int int : int
          
          predicate (<) int int
          
          function (-) (x:int) (y:int) : int = x + (- y)
          
          predicate (>) (x:int) (y:int) = y < x
          
          predicate (<=) (x:int) (y:int) = x < y \/ x = y
          
          predicate (>=) (x:int) (y:int) = y <= x
          
          Assoc : forall x:int, y:int, z:int. ((x + y) + z) = (x + (y + z))
          
          (* clone algebra.Assoc with type t = int, function op = (+),
            prop Assoc1 = Assoc,  *)
          
          Unit_def_l : forall x:int. (zero + x) = x
          
          Unit_def_r : forall x:int. (x + zero) = x
          
          (* clone algebra.Monoid with type t1 = int, constant unit = zero,
            function op1 = (+), prop Unit_def_r1 = Unit_def_r,
            prop Unit_def_l1 = Unit_def_l, prop Assoc2 = Assoc,  *)
          
          Inv_def_l : forall x:int. ((- x) + x) = zero
          
          Inv_def_r : forall x:int. (x + (- x)) = zero
          
          (* clone algebra.Group with type t2 = int, function inv = (-_),
            constant unit1 = zero, function op2 = (+),
            prop Inv_def_r1 = Inv_def_r, prop Inv_def_l1 = Inv_def_l,
            prop Unit_def_r2 = Unit_def_r, prop Unit_def_l2 = Unit_def_l,
            prop Assoc3 = Assoc,  *)
          
          Comm : forall x:int, y:int. (x + y) = (y + x)
          
          (* clone algebra.Comm with type t3 = int, function op3 = (+),
            prop Comm1 = Comm,  *)
          
          (* meta AC function (+) *)
          
          (* clone algebra.CommutativeGroup with type t4 = int,
            function inv1 = (-_), constant unit2 = zero, function op4 = (+),
            prop Comm2 = Comm, prop Inv_def_r2 = Inv_def_r,
            prop Inv_def_l2 = Inv_def_l, prop Unit_def_r3 = Unit_def_r,
            prop Unit_def_l3 = Unit_def_l, prop Assoc4 = Assoc,  *)
          
          Assoc5 : forall x:int, y:int, z:int. ((x * y) * z) = (x * (y * z))
          
          (* clone algebra.Assoc with type t = int, function op = ( * ),
            prop Assoc1 = Assoc5,  *)
          
          Mul_distr_l :
            forall x:int, y:int, z:int. (x * (y + z)) = ((x * y) + (x * z))
          
          Mul_distr_r :
            forall x:int, y:int, z:int. ((y + z) * x) = ((y * x) + (z * x))
          
          (* clone algebra.Ring with type t5 = int, function ( *') = ( * ),
            function (-'_) = (-_), function (+') = (+),
            constant zero1 = zero, prop Mul_distr_r1 = Mul_distr_r,
            prop Mul_distr_l1 = Mul_distr_l, prop Assoc6 = Assoc5,
            prop Comm3 = Comm, prop Inv_def_r3 = Inv_def_r,
            prop Inv_def_l3 = Inv_def_l, prop Unit_def_r4 = Unit_def_r,
            prop Unit_def_l4 = Unit_def_l, prop Assoc7 = Assoc,  *)
          
          Comm4 : forall x:int, y:int. (x * y) = (y * x)
          
          (* clone algebra.Comm with type t3 = int, function op3 = ( * ),
            prop Comm1 = Comm4,  *)
          
          (* meta AC function ( * ) *)
          
          (* clone algebra.CommutativeRing with type t6 = int,
            function ( *'') = ( * ), function (-''_) = (-_),
            function (+'') = (+), constant zero2 = zero, prop Comm5 = Comm4,
            prop Mul_distr_r2 = Mul_distr_r, prop Mul_distr_l2 = Mul_distr_l,
            prop Assoc8 = Assoc5, prop Comm6 = Comm,
            prop Inv_def_r4 = Inv_def_r, prop Inv_def_l4 = Inv_def_l,
            prop Unit_def_r5 = Unit_def_r, prop Unit_def_l5 = Unit_def_l,
            prop Assoc9 = Assoc,  *)
          
          Unitary : forall x:int. (one * x) = x
          
          NonTrivialRing : not zero = one
          
          (* clone algebra.UnitaryCommutativeRing with type t7 = int,
            constant one1 = one, function ( *''') = ( * ),
            function (-'''_) = (-_), function (+''') = (+),
            constant zero3 = zero, prop NonTrivialRing1 = NonTrivialRing,
            prop Unitary1 = Unitary, prop Comm7 = Comm4,
            prop Mul_distr_r3 = Mul_distr_r, prop Mul_distr_l3 = Mul_distr_l,
            prop Assoc10 = Assoc5, prop Comm8 = Comm,
            prop Inv_def_r5 = Inv_def_r, prop Inv_def_l5 = Inv_def_l,
            prop Unit_def_r6 = Unit_def_r, prop Unit_def_l6 = Unit_def_l,
            prop Assoc11 = Assoc,  *)
          
          (* clone relations.EndoRelation with type t8 = int,
            predicate rel = (<=),  *)
          
          Refl : forall x:int. x <= x
          
          (* clone relations.Reflexive with type t9 = int,
            predicate rel1 = (<=), prop Refl1 = Refl,  *)
          
          (* clone relations.EndoRelation with type t8 = int,
            predicate rel = (<=),  *)
          
          Trans : forall x:int, y:int, z:int. x <= y -> y <= z -> x <= z
          
          (* clone relations.Transitive with type t10 = int,
            predicate rel2 = (<=), prop Trans1 = Trans,  *)
          
          (* clone relations.PreOrder with type t11 = int,
            predicate rel3 = (<=), prop Trans2 = Trans, prop Refl2 = Refl,
             *)
          
          (* clone relations.EndoRelation with type t8 = int,
            predicate rel = (<=),  *)
          
          Antisymm : forall x:int, y:int. x <= y -> y <= x -> x = y
          
          (* clone relations.Antisymmetric with type t12 = int,
            predicate rel4 = (<=), prop Antisymm1 = Antisymm,  *)
          
          (* clone relations.PartialOrder with type t13 = int,
            predicate rel5 = (<=), prop Antisymm2 = Antisymm,
            prop Trans3 = Trans, prop Refl3 = Refl,  *)
          
          (* clone relations.EndoRelation with type t8 = int,
            predicate rel = (<=),  *)
          
          Total : forall x:int, y:int. x <= y \/ y <= x
          
          (* clone relations.Total with type t14 = int,
            predicate rel6 = (<=), prop Total1 = Total,  *)
          
          (* clone relations.TotalOrder with type t15 = int,
            predicate rel7 = (<=), prop Total2 = Total,
            prop Antisymm3 = Antisymm, prop Trans4 = Trans,
            prop Refl4 = Refl,  *)
          
          ZeroLessOne : zero <= one
          
          CompatOrderAdd :
            forall x:int, y:int, z:int. x <= y -> (x + z) <= (y + z)
          
          CompatOrderMult :
            forall x:int, y:int, z:int.
             x <= y -> zero <= z -> (x * z) <= (y * z)
          
          (* clone algebra.OrderedUnitaryCommutativeRing with type t16 = int,
            predicate (<=') = (<=), constant one2 = one,
            function ( *'''') = ( * ), function (-''''_) = (-_),
            function (+'''') = (+), constant zero4 = zero,
            prop CompatOrderMult1 = CompatOrderMult,
            prop CompatOrderAdd1 = CompatOrderAdd,
            prop ZeroLessOne1 = ZeroLessOne, prop Total3 = Total,
            prop Antisymm4 = Antisymm, prop Trans5 = Trans,
            prop Refl5 = Refl, prop NonTrivialRing2 = NonTrivialRing,
            prop Unitary2 = Unitary, prop Comm9 = Comm4,
            prop Mul_distr_r4 = Mul_distr_r, prop Mul_distr_l4 = Mul_distr_l,
            prop Assoc12 = Assoc5, prop Comm10 = Comm,
            prop Inv_def_r6 = Inv_def_r, prop Inv_def_l6 = Inv_def_l,
            prop Unit_def_r7 = Unit_def_r, prop Unit_def_l7 = Unit_def_l,
            prop Assoc13 = Assoc,  *)
          
          (* use int.Int *)
          
          type (->) 'a 'b
          
          function (@) ('a -> 'b) 'a : 'b
          
          (* use why3.HighOrd.HighOrd *)
          
          type map 'a 'b = 'a -> 'b
          
          function get (f:'a -> 'b) (x:'a) : 'b = f @ x
          
          function set (f:'a -> 'b) (x:'a) (v:'b) : 'a -> 'b =
            fun (y:'a) -> if y = x then v else f @ y
          
          function ([]) (f:'a -> 'b) (x:'a) : 'b = f @ x
          
          function ([<-]) (f:'a -> 'b) (x:'a) (v:'b) : 'a -> 'b = set f x v
          
          (* use map.Map *)
          
          type array 'a
          
          function elts (array 'a) : int -> 'a
          
          function length (array 'a) : int
          
          array'invariant :
            forall self:array 'a [length self]. 0 <= length self
          
          (* meta model_record function elts *)
          
          (* meta model_record function length *)
          
          function ([]') (a:array 'a) (i:int) : 'a = elts a @ i
          
          function ([<-]') (array 'a) int 'a : array 'a
          
          ([<-])'spec :
            forall a:array 'a, i:int, v:'a.
             length a[i <- v]' = length a /\
             elts a[i <- v]' = set (elts a) i v
          
          function make int 'a : array 'a
          
          make'spec :
            forall n:int, v:'a.
             n >= 0 ->
             (forall i:int. 0 <= i /\ i < n -> (make n v)[i]' = v) /\
             length (make n v) = n
          
          (* use array.Array *)
          
          goal f'vc :
            forall a:array int.
             length a >= 1 ->
             (0 <= 0 /\ 0 < length a) /\
             (forall a1:array int.
               length a1 = length a ->
               elts a1 = set (elts a) 0 42 /\ a1 = a[0 <- 42]' -> a1[0]' = 42)
end

On task 1, alt-ergo answers Valid (0.0xs, 0 steps)
On task 2, alt-ergo answers Valid (0.0xs, 2 steps)
On task 3, alt-ergo answers Valid (0.0xs, 0 steps)
On task 4, alt-ergo answers Valid (0.0xs, 8 steps)
